<svg xmlns="http://www.w3.org/2000/svg" id="clock-circular-outline" width="16" height="16" viewBox="0 0 16 16">
    <defs>
        <style>
            .cls-1{fill:#0f6ade}
        </style>
    </defs>
    <g id="Group_782" data-name="Group 782">
        <path id="Path_606" d="M8 0a8 8 0 1 0 8 8 8.009 8.009 0 0 0-8-8zm0 14.3A6.3 6.3 0 1 1 14.3 8 6.3 6.3 0 0 1 8 14.3z" class="cls-1" data-name="Path 606"/>
        <path id="Path_607" d="M48.979 21.811h-3.6v-4.322a.659.659 0 1 0-1.317 0v4.981a.659.659 0 0 0 .659.659h4.254a.659.659 0 0 0 0-1.317z" class="cls-1" data-name="Path 607" transform="translate(-36.809 -14.058)"/>
    </g>
</svg>
