<svg xmlns="http://www.w3.org/2000/svg" viewBox="0 0 16 16" role="presentation">
    <g fill="currentColor" stroke="currentColor" stroke-width="0">
        <path
                d="
                m5,2
                l0,10
                l3,-2
                l3,2
                l0,-10
                l-6,0
                m-2,-2
                l10,0
                l0,16
                l-5,-4
                l-5,4
                l0,-16
                z"
        />
    </g>
</svg>
