<svg xmlns="http://www.w3.org/2000/svg" width="15.66" height="16" viewBox="0 0 15.66 16">
    <defs>
        <style>
            .prefix__cls-1{fill:#0070ff}
        </style>
    </defs>
    <g id="prefix__Group_1588" data-name="Group 1588" transform="translate(-424.34 -3928)">
        <path id="prefix__Union_1" d="M4.038 15.055v-3.9a.032.032 0 0 0-.033-.034h-.351a.03.03 0 0 0-.032.034v3.9a.936.936 0 1 1-1.872 0V9.082c0-.446-.027-.344-.027-.344l-.377 1.013a.693.693 0 0 1-.9.411.7.7 0 0 1-.407-.9l1.415-4.3a.762.762 0 0 1 .769-.5h3.208a.807.807 0 0 1 .769.5l1.415 4.3a.7.7 0 0 1-.407.9.693.693 0 0 1-.9-.411l-.364-.98s-.039-.143-.039.31v5.973a.936.936 0 1 1-1.872 0zm-2.2-13.066a2.01 2.01 0 0 1 4.02 0 2.01 2.01 0 0 1-4.02 0z" class="prefix__cls-1" data-name="Union 1" transform="translate(424.34 3928)"/>
        <path id="prefix__Union_2" d="M4.038 15.055v-3.9a.032.032 0 0 0-.033-.034h-.351a.03.03 0 0 0-.032.034v3.9a.936.936 0 1 1-1.872 0V9.082c0-.446-.027-.344-.027-.344l-.377 1.013a.693.693 0 0 1-.9.411.7.7 0 0 1-.407-.9l1.415-4.3a.762.762 0 0 1 .769-.5h3.208a.807.807 0 0 1 .769.5l1.415 4.3a.7.7 0 0 1-.407.9.693.693 0 0 1-.9-.411l-.364-.98s-.039-.143-.039.31v5.973a.936.936 0 1 1-1.872 0zm-2.2-13.066a2.01 2.01 0 0 1 4.02 0 2.01 2.01 0 0 1-4.02 0z" class="prefix__cls-1" data-name="Union 2" transform="translate(432.34 3928)"/>
    </g>
</svg>
