<svg viewBox="0 0 24 24" xmlns="http://www.w3.org/2000/svg">
  <g stroke="null" fill="currentColor" id="tools">
   <path d="m11.997612,7.26075a4.739253,4.739253 0 1 0 4.739253,4.739253a4.744625,4.744625 0 0 0 -4.739253,-4.739253zm0,7.480738a2.741485,2.741485 0 1 1 2.745663,-2.743276a2.741485,2.741485 0 0 1 -2.745663,2.745663l0,-0.002388zm0,0" />
   <path d="m23.209468,9.184501l-1.767371,0a9.759639,9.759639 0 0 0 -0.775948,-1.870035l1.253455,-1.253455a0.728198,0.728198 0 0 0 0,-1.029624l-2.954572,-2.948603a0.728198,0.728198 0 0 0 -1.029624,0l-1.253455,1.253455a9.765608,9.765608 0 0 0 -1.870035,-0.775948l0,-1.769759a0.728198,0.728198 0 0 0 -0.722826,-0.728198l-4.178183,0a0.728198,0.728198 0 0 0 -0.728198,0.728198l0,1.767371a9.754864,9.754864 0 0 0 -1.870035,0.775948l-1.253455,-1.253455a0.727601,0.727601 0 0 0 -0.514513,-0.213087a0.728198,0.728198 0 0 0 -0.514513,0.213087l-2.94741,2.954572a0.728198,0.728198 0 0 0 0,1.029624l1.253455,1.253455a9.767995,9.767995 0 0 0 -0.775948,1.870035l-1.769759,0a0.728198,0.728198 0 0 0 -0.728198,0.722826l0,4.178183a0.728198,0.728198 0 0 0 0.728198,0.728198l1.767371,0a9.750089,9.750089 0 0 0 0.775948,1.870035l-1.253455,1.253455a0.728198,0.728198 0 0 0 0,1.029624l2.953975,2.946813a0.728198,0.728198 0 0 0 1.029624,0l1.253455,-1.253455a9.765608,9.765608 0 0 0 1.870035,0.775948l0,1.769759a0.728198,0.728198 0 0 0 0.723423,0.728198l4.178183,0a0.728198,0.728198 0 0 0 0.728198,-0.728198l0,-1.767371a9.754864,9.754864 0 0 0 1.870035,-0.775948l1.253455,1.253455a0.727601,0.727601 0 0 0 0.514513,0.213087a0.728198,0.728198 0 0 0 0.514513,-0.213087l2.952185,-2.952185a0.728198,0.728198 0 0 0 0,-1.029624l-1.253455,-1.253455a9.767398,9.767398 0 0 0 0.775948,-1.870035l1.764984,0a0.728198,0.728198 0 0 0 0.728198,-0.725213l0,-4.178183a0.728198,0.728198 0 0 0 -0.728198,-0.728198l0,0.001791zm-11.209468,9.011147a6.195649,6.195649 0 1 1 6.195649,-6.195649a6.202811,6.202811 0 0 1 -6.195649,6.195649zm0,0"/>
  </g>
</svg>
