<svg version="1.1" xmlns="http://www.w3.org/2000/svg" fill="currentColor" width="14" height="12" viewBox="0 0 14 12" preserveAspectRatio="none">
    <g transform="rotate(90), translate(-2, -15)">
        <path d="M2 1v14l12-7z" />
    </g>
</svg>
