<svg width="108" height="25" viewBox="0 0 108 25" fill="none" xmlns="http://www.w3.org/2000/svg">
<path fill-rule="evenodd" clip-rule="evenodd" d="M40.5251 7.04339C41.5406 8.05753 42.2322 9.34966 42.5124 10.7564C42.7926 12.1631 42.6488 13.6212 42.0993 14.9463C41.5498 16.2714 40.6191 17.4039 39.4251 18.2008C38.2311 18.9976 36.8273 19.423 35.3912 19.423C33.9552 19.423 32.5514 18.9976 31.3574 18.2008C30.1634 17.4039 29.2327 16.2714 28.6832 14.9463C28.1337 13.6212 27.9899 12.1631 28.2701 10.7564C28.5503 9.34966 29.2419 8.05753 30.2574 7.04339C31.6191 5.68373 33.4658 4.91991 35.3912 4.91991C37.3167 4.91991 39.1634 5.68373 40.5251 7.04339ZM35.3984 0.0871833C38.6075 0.0891799 41.6844 1.36406 43.9525 3.63147C46.2206 5.89887 47.4942 8.97315 47.4932 12.1783C47.4922 15.3834 46.2167 18.4568 43.9472 20.7228C41.6777 22.9888 38.6 24.2618 35.3909 24.2618C32.1818 24.2618 29.1041 22.9888 26.8346 20.7228C24.5651 18.4568 23.2896 15.3834 23.2886 12.1783C23.2876 8.97315 24.5612 5.89887 26.8293 3.63147C29.0974 1.36406 32.1743 0.0891799 35.3834 0.0871833H35.3984ZM65.9381 7.04339C66.9536 8.05753 67.6452 9.34966 67.9254 10.7564C68.2056 12.1631 68.0618 13.6212 67.5123 14.9463C66.9628 16.2714 66.0322 17.4039 64.8381 18.2008C63.6441 18.9976 62.2403 19.423 60.8043 19.423C59.3682 19.423 57.9644 18.9976 56.7704 18.2008C55.5764 17.4039 54.6458 16.2714 54.0963 14.9463C53.5467 13.6212 53.403 12.1631 53.6832 10.7564C53.9634 9.34966 54.6549 8.05753 55.6704 7.04339C57.0321 5.68373 58.8788 4.91991 60.8043 4.91991C62.7298 4.91991 64.5764 5.68373 65.9381 7.04339ZM69.361 3.62481C71.3413 5.60141 72.5741 8.20261 72.8496 10.9852C73.125 13.7679 72.426 16.5599 70.8716 18.8855C69.3172 21.2111 67.0036 22.9266 64.3248 23.7396C61.6461 24.5526 58.768 24.4129 56.1809 23.3443C53.5937 22.2756 51.4575 20.3442 50.1363 17.879C48.815 15.4137 48.3903 12.5672 48.9347 9.82438C49.479 7.08153 50.9586 4.61201 53.1215 2.83652C55.2844 1.06103 57.9967 0.0894106 60.7964 0.0871833C62.3868 0.0861615 63.9619 0.398266 65.4314 1.00565C66.901 1.61303 68.2363 2.50378 69.361 3.62696V3.62481ZM5.1373 24.2001L6.34718 24.2604H24.4995L24.4392 23.0527C24.277 21.0627 22.866 19.6105 20.8692 19.4864L19.6586 19.4254H8.76907L23.289 4.92211L23.2286 3.71445C23.1331 1.70647 21.6633 0.253559 19.6586 0.147423L18.4488 0.0871833H0.296387L0.356701 1.29484C0.511794 3.26122 1.94784 4.74856 3.92528 4.86115L5.1373 4.92211H16.0283L1.50626 19.4254L1.56729 20.6331C1.68648 22.6253 3.12684 24.0675 5.1373 24.2001ZM87.9858 7.33025C88.4001 8.04308 88.5301 8.84698 88.5767 9.75488L88.6378 10.964V19.4262L88.6981 20.6338C88.818 22.6102 90.2727 24.0761 92.2688 24.2008L93.478 24.2611V10.9654L93.539 9.75631C93.5857 8.85989 93.7178 8.03519 94.1357 7.32236C94.5628 6.59062 95.1749 5.98375 95.9106 5.56249C96.6464 5.14122 97.48 4.92034 98.3281 4.92194C99.1762 4.92353 100.009 5.14756 100.743 5.57159C101.477 5.99562 102.087 6.60479 102.511 7.33813C102.924 8.04953 103.051 8.87065 103.099 9.75631L103.159 10.964V19.4262L103.22 20.6338C103.346 22.6217 104.791 24.0847 106.791 24.2008L108 24.2611V9.75631C108.001 7.79155 107.402 5.87317 106.284 4.25665C105.166 2.64014 103.581 1.40219 101.741 0.707676C99.9008 0.0131598 97.8924 -0.104967 95.9833 0.369026C94.0742 0.843019 92.355 1.88664 91.0546 3.3609C89.4982 1.59853 87.3525 0.462465 85.0185 0.164989C82.6845 -0.132486 80.3219 0.428984 78.3722 1.74448C77.4337 0.698182 75.3256 0.0871833 74.1157 0.0871833V24.2604L75.3256 24.2001C77.3468 24.0667 78.8166 22.6411 78.8956 20.6345L78.9566 19.4254V10.9633L79.017 9.75416C79.0679 8.84483 79.195 8.03877 79.6108 7.32523C80.037 6.59307 80.6482 5.98553 81.3833 5.56337C82.1184 5.14122 82.9516 4.91926 83.7995 4.91969C84.6475 4.92013 85.4804 5.14295 86.2151 5.56586C86.9498 5.98876 87.5604 6.59694 87.9858 7.32953V7.33025Z" fill="#2D8CFF"/>
</svg>
