<svg xmlns="http://www.w3.org/2000/svg" width="56" height="56" viewBox="0 0 56 56">
    <defs>
        <style>
            .prefix__cls-1{fill:#0070ff}
        </style>
    </defs>
    <g id="prefix__Group_3822" data-name="Group 3822" transform="translate(-239.263 -205.107)">
        <path id="prefix__Path_5513" d="M294.1 258.774h-1.167V224.94a1.167 1.167 0 0 0-1.167-1.166h-7a1.166 1.166 0 0 0-1.166 1.166v33.834h-4.667V238.94a1.167 1.167 0 0 0-1.167-1.166h-7a1.166 1.166 0 0 0-1.167 1.166v19.834h-4.667v-24.5a1.167 1.167 0 0 0-1.166-1.167h-7a1.168 1.168 0 0 0-1.167 1.167v24.5h-4.667V245.94a1.166 1.166 0 0 0-1.166-1.166h-7a1.167 1.167 0 0 0-1.167 1.166v12.834h-1.167a1.167 1.167 0 0 0 0 2.333H294.1a1.167 1.167 0 1 0 0-2.333zm-8.167-32.667h4.667v32.667h-4.667zm-14 14h4.667v18.667h-4.667zm-14-4.667h4.667v23.334h-4.667zm-9.333 23.334h-4.667v-11.667h4.667v11.667z" class="prefix__cls-1" data-name="Path 5513"/>
        <path id="prefix__Path_5514" d="M246.263 235.44a4.671 4.671 0 0 0 4.666-4.666 4.6 4.6 0 0 0-.6-2.249l7.148-5.7a4.607 4.607 0 0 0 6.794-1.364l5.403 1.539a4.547 4.547 0 0 0-.078.77 4.666 4.666 0 0 0 9.333 0 4.613 4.613 0 0 0-.661-2.356l7.639-7.639a4.613 4.613 0 0 0 2.355.661 4.667 4.667 0 1 0-4.666-4.666 4.616 4.616 0 0 0 .661 2.356l-7.639 7.638a4.578 4.578 0 0 0-5.968 1.087l-5.732-1.634c0-.039.011-.075.011-.114a4.666 4.666 0 1 0-9.333 0 4.615 4.615 0 0 0 .414 1.9l-7.292 5.814a4.625 4.625 0 0 0-2.455-.715 4.667 4.667 0 1 0 0 9.333zm42-28a2.333 2.333 0 1 1-1.642 3.989l-.005-.008-.008-.005a2.332 2.332 0 0 1 1.655-3.976zm-14 14a2.333 2.333 0 1 1-2.333 2.334 2.337 2.337 0 0 1 2.332-2.334zm-14-4.666a2.333 2.333 0 1 1-2.334 2.333 2.336 2.336 0 0 1 2.334-2.333zm-14 11.666a2.333 2.333 0 1 1-2.334 2.334 2.336 2.336 0 0 1 2.334-2.334z" class="prefix__cls-1" data-name="Path 5514"/>
    </g>
</svg>
