<svg xmlns="http://www.w3.org/2000/svg" viewBox="0 0 64 61.573" fill="currentColor">
    <g transform="translate(-12.656 -53)">
        <g transform="translate(63.007 55.275)">
            <path d="M422 68.78v5.147a27.277 27.277 0 0 1 4.55 3.293V68a13.623 13.623 0 0 0-4.55.78z" transform="translate(-422 -68)"/>
        </g>
        <g transform="translate(12.656 53)">
            <path d="M147.556 75.749A22.832 22.832 0 0 0 135.8 63.994V53a13.654 13.654 0 0 0-12.872 9.1h-10.179a22.75 22.75 0 0 0-11.526 42.364v10.11h9.251l2.754-6.976h12.995l2.754 6.976h9.251v-10.11a22.851 22.851 0 0 0 4.8-3.779L154 89.4V75.749zm-23.129-2.275h-13.953v-4.55h13.953zm13.649 4.55h-4.55v-4.55h4.55z" transform="translate(-90 -53)"/>
        </g>
    </g>
</svg>
