<svg xmlns="http://www.w3.org/2000/svg" width="208" height="125" viewBox="0 0 208 125">
    <defs>
        <style>
            .cls-1{fill:#0070ff}.cls-1,.cls-4{opacity:.4}.cls-2{fill:#cae0fe}.cls-3{fill:#fff;stroke:#f8f9fa}.cls-4{fill:#e9f3ff}.cls-5{fill:#99c6ff}.cls-6{fill:#c8e0ff;font-size:72px;font-family:Circe-Bold,Circe;font-weight:700}.cls-7{stroke:none}.cls-8{fill:none}.cls-9{filter:url(#Rectangle_1581)}
        </style>
        <filter id="Rectangle_1581" width="101" height="125" x="9.5" y="0" filterUnits="userSpaceOnUse">
            <feOffset/>
            <feGaussianBlur result="blur" stdDeviation="7.5"/>
            <feFlood flood-color="#0070ff" flood-opacity=".2"/>
            <feComposite in2="blur" operator="in"/>
            <feComposite in="SourceGraphic"/>
        </filter>
    </defs>
    <g id="Group_3304" data-name="Group 3304" transform="translate(-80 -1766.5)">
        <g id="Group_3275" data-name="Group 3275" transform="translate(-1040 -152)">
            <circle id="Ellipse_191" cx="60" cy="60" r="60" class="cls-1" data-name="Ellipse 191" transform="translate(1120 1921)"/>
            <path id="Intersection_3" d="M4 72a4 4 0 0 1-4-4V4a4 4 0 0 1 4-4h39a59.741 59.741 0 0 1 12 36 59.741 59.741 0 0 1-12 36z" class="cls-2" data-name="Intersection 3" transform="rotate(180 610 1008.5)"/>
            <path id="Intersection_4" d="M4 72a4 4 0 0 1-4-4V4a4 4 0 0 1 4-4h39a59.741 59.741 0 0 1 12 36 59.741 59.741 0 0 1-12 36z" class="cls-2" data-name="Intersection 4" transform="translate(1140 1945)"/>
            <g id="Group_3265" data-name="Group 3265" transform="translate(12 173)">
                <g class="cls-9" transform="translate(1108 1745.5)">
                    <g id="Rectangle_1581-2" class="cls-3" data-name="Rectangle 1581" transform="translate(32 22.5)">
                        <rect width="56" height="80" class="cls-7" rx="4"/>
                        <rect width="55" height="79" x=".5" y=".5" class="cls-8" rx="3.5"/>
                    </g>
                </g>
                <g id="Group_3265-2" data-name="Group 3265" transform="translate(0 -7)">
                    <rect id="Rectangle_1582" width="40" height="4" class="cls-4" data-name="Rectangle 1582" rx="2" transform="translate(1148 1792)"/>
                    <rect id="Rectangle_1583" width="40" height="4" class="cls-4" data-name="Rectangle 1583" rx="2" transform="translate(1148 1804)"/>
                </g>
                <path id="Path_1612" d="M321.693 244.3l3.554 7.2 7.946 1.155-5.75 5.6 1.357 7.914-7.107-3.737-7.107 3.737 1.357-7.914-5.75-5.6 7.946-1.155z" class="cls-5" data-name="Path 1612" transform="translate(846.807 1565.826)"/>
            </g>
        </g>
        <text id="_3." class="cls-6" data-name="3." transform="translate(232 1844)">
            <tspan x="0" y="0">3.</tspan>
        </text>
    </g>
</svg>
