{
  "ru": {
    "header": {
      "title": "Sign up for WhatWhere.World",
      "hint": "Announce your events on our website and promote them on social media and search engines in one click!"
    },
    "controls": {
      "add": "Add profile photo",
      "edit": "Edit profile photo",
      "delete": "Delete profile photo"
    },
    "register": "Sign Up"
  },
  "en": {
    "header": {
      "title": "Sign up for WhatWhere.World",
      "hint": "Announce your events on our website and promote them on social media and search engines in one click!"
    },
    "controls": {
      "add": "Add profile photo",
      "edit": "Edit profile photo",
      "delete": "Delete profile photo"
    },
    "register": "Sign Up"
  },
  "es": {
    "header": {
      "title": "Sign up for WhatWhere.World",
      "hint": "Announce your events on our website and promote them on social media and search engines in one click!"
    },
    "controls": {
      "add": "Add profile photo",
      "edit": "Edit profile photo",
      "delete": "Delete profile photo"
    },
    "register": "Sign Up"
  }
}
