<svg xmlns="http://www.w3.org/2000/svg" viewBox="0 0 25.414 25.414">
    <defs>
        <style>
            .cls-1{fill:none;stroke:#000;stroke-width:2px}
        </style>
    </defs>
    <g id="Group_1303" data-name="Group 1303" transform="translate(-1487.293 -463.293)">
        <path id="Path_495" d="M5880 464l-24 24" class="cls-1" data-name="Path 495" transform="translate(-4368)"/>
        <path id="Path_496" d="M5880 464l-24 24" class="cls-1" data-name="Path 496" transform="rotate(90 3684 -1708)"/>
    </g>
</svg>
