<svg xmlns="http://www.w3.org/2000/svg" width="15.092" height="24"
     viewBox="0 0 15.092 24">
    <defs>
        <style>
            .cls-1{fill:#fff}
        </style>
    </defs>
    <g id="skate-boy" transform="translate(-24.659)">
        <path id="Path_1060" d="M39.593 8.782L39.33 8.4a.876.876 0 0 0-1.23-.212l-5.372 3.843a.888.888 0 0 0-.1-.01h-4.364a1.347 1.347 0 0 0-1.121.68l-2.366 4.551a1.357 1.357 0 0 0 .094 1.312l1.711 2.384a1.381 1.381 0 0 0 .591.444l-2.131 6.418a1.417 1.417 0 0 0 .089 1.129 1.345 1.345 0 0 0 .842.667 1.422 1.422 0 0 0 .37.049 1.563 1.563 0 0 0 1.457-1.063l2.3-6.878h1.315l1.663.57a.836.836 0 0 1 .515.732l-.053 3.449a1.051 1.051 0 0 0 1.051 1.067h.465a1.064 1.064 0 0 0 1.063-1.063v-5.311a1.338 1.338 0 0 0-.964-1.245l-1.636-.423v-5.28l.026-.016 5.837-4.176a.9.9 0 0 0 .211-1.236zm-12.144 9.884l-.3-.372a.62.62 0 0 1-.04-.63l.337-.556z" class="cls-1" data-name="Path 1060" transform="translate(0 -5.655)"/>
        <path id="Path_1061" d="M37.506 5.762a2.881 2.881 0 1 0-2.881-2.881 2.884 2.884 0 0 0 2.881 2.881z" class="cls-1" data-name="Path 1061" transform="translate(-7.024)"/>
    </g>
</svg>
