<svg xmlns="http://www.w3.org/2000/svg" xmlns:xlink="http://www.w3.org/1999/xlink" width="32" height="32" viewBox="0 0 32 32">
  <defs>
    <linearGradient id="linear-gradient" x1="0.146" y1="0.854" x2="0.854" y2="0.146" gradientUnits="objectBoundingBox">
      <stop offset="0" stop-color="#fd5"/>
      <stop offset="0.5" stop-color="#ff543e"/>
      <stop offset="1" stop-color="#c837ab"/>
    </linearGradient>
  </defs>
  <g id="Group_3849" data-name="Group 3849" transform="translate(664.367 45.812)">
    <circle id="Ellipse_599" data-name="Ellipse 599" cx="16" cy="16" r="16" transform="translate(-664.367 -45.812)" fill="url(#linear-gradient)"/>
    <path id="Path_5530" data-name="Path 5530" d="M-542.14,67.022c-3.8,0-7.409-.338-8.788,3.2-.569,1.461-.487,3.359-.487,6.076,0,2.384-.076,4.625.487,6.075,1.375,3.54,5.013,3.2,8.785,3.2,3.639,0,7.391.379,8.787-3.2.57-1.476.487-3.345.487-6.075,0-3.623.2-5.963-1.557-7.719-1.779-1.779-4.186-1.556-7.718-1.556Zm-.831,1.672c7.927-.013,8.936-.894,8.379,11.349-.2,4.33-3.495,3.855-7.547,3.855-7.389,0-7.6-.211-7.6-7.6,0-7.478.586-7.6,6.77-7.6Zm5.782,1.54a1.113,1.113,0,0,0-1.113,1.113,1.113,1.113,0,0,0,1.113,1.113,1.113,1.113,0,0,0,1.113-1.113A1.113,1.113,0,0,0-537.189,70.233Zm-4.951,1.3A4.763,4.763,0,0,0-546.9,76.3a4.762,4.762,0,0,0,4.762,4.762,4.761,4.761,0,0,0,4.761-4.762,4.762,4.762,0,0,0-4.761-4.763Zm0,1.672c4.087,0,4.092,6.184,0,6.184S-546.232,73.205-542.14,73.205Z" transform="translate(-106.227 -106.111)" fill="#fff"/>
  </g>
</svg>
