<svg xmlns="http://www.w3.org/2000/svg" width="24" height="24" viewBox="0 0 24 24" fill="currentColor">
        <path d="M71.745 69.215a2.878 2.878 0 1 1-2.9 2.874 2.89 2.89 0 0 1 2.9-2.874z" transform="translate(-68.847 -69.215)"/>
        <path d="M78.369 190.654h-3.375a.793.793 0 0 1-.793-.793v-14.4a.793.793 0 0 1 .793-.793h3.375a.793.793 0 0 1 .793.793v14.4a.793.793 0 0 1-.793.793z" transform="translate(-73.797 -166.713)"/>
        <path d="M197.01 174.727a5.465 5.465 0 0 0-5.465-5.465h-.866a4.861 4.861 0 0 0-4.253 2.51l-.045-.006V170a.329.329 0 0 0-.329-.329h-4.21a.329.329 0 0 0-.329.329v15.325a.329.329 0 0 0 .329.329h4.3a.329.329 0 0 0 .329-.329v-8.854a2.806 2.806 0 0 1 2.751-2.818 2.783 2.783 0 0 1 2.815 2.783v8.89a.329.329 0 0 0 .329.329h4.313a.329.329 0 0 0 .329-.329v-10.6z" transform="translate(-173.01 -161.712)"/>
</svg>
