<svg xmlns="http://www.w3.org/2000/svg" width="24" height="24" viewBox="0 0 24 24">
    <g id="prefix__Group_3871" data-name="Group 3871" transform="translate(-680 -1104)">
        <rect id="prefix__Rectangle_299" width="24" height="24" data-name="Rectangle 299" rx="12" transform="translate(680 1104)" style="fill:#4a76a8"/>
        <path id="prefix__Path_853" d="M23.811 45.673h.717a.605.605 0 0 0 .327-.143.525.525 0 0 0 .1-.315s-.014-.962.433-1.1 1.006.93 1.605 1.342a1.136 1.136 0 0 0 .8.243l1.6-.022s.838-.052.441-.711a5.355 5.355 0 0 0-1.192-1.379c-1-.933-.87-.782.34-2.4.737-.983 1.032-1.582.94-1.839s-.63-.18-.63-.18l-1.8.011a.41.41 0 0 0-.233.041.506.506 0 0 0-.159.194 10.447 10.447 0 0 1-.666 1.407c-.8 1.364-1.125 1.436-1.256 1.352-.305-.2-.229-.793-.229-1.216 0-1.322.2-1.873-.39-2.016a3.081 3.081 0 0 0-.842-.084 3.889 3.889 0 0 0-1.5.153c-.205.1-.364.325-.267.337a.81.81 0 0 1 .533.268 1.741 1.741 0 0 1 .178.816s.106 1.556-.248 1.75c-.243.133-.577-.138-1.293-1.376a11.506 11.506 0 0 1-.644-1.335.536.536 0 0 0-.149-.2.748.748 0 0 0-.277-.112l-1.715.011s-.257.007-.352.119-.007.305-.007.305a19.512 19.512 0 0 0 2.862 4.723 4.117 4.117 0 0 0 2.976 1.356z" data-name="Path 853" transform="translate(668.06 1074.145)" style="fill:#fff;fill-rule:evenodd"/>
    </g>
</svg>
