<svg xmlns="http://www.w3.org/2000/svg" width="24" height="24" viewBox="0 0 24 24">
    <defs>
        <style>
            .prefix__cls-2{fill:#fff}
        </style>
    </defs>
    <g id="prefix__Group_3868" data-name="Group 3868" transform="translate(-584 -1104)">
        <rect id="prefix__Rectangle_298" width="24" height="24" data-name="Rectangle 298" rx="12" transform="translate(584 1104)" style="fill:#c6c7c8"/>
        <g id="prefix__Group_935" data-name="Group 935" transform="translate(588 1113)">
            <path id="prefix__Subtraction_11" d="M1.548 5.181C1.532 5.155 0 2.609 0 1.682A1.747 1.747 0 0 1 .454.488 1.48 1.48 0 0 1 1.548 0a1.476 1.476 0 0 1 1.093.5A1.747 1.747 0 0 1 3.1 1.682c0 .9-1.532 3.473-1.548 3.5zm0-4.15a.516.516 0 1 0 .516.516.51.51 0 0 0-.516-.515z" class="prefix__cls-2" data-name="Subtraction 11" transform="translate(11.305)"/>
            <path id="prefix__Path_10" d="M29.764 6.908h-3.432L22.9 0h3.432z" class="prefix__cls-2" data-name="Path 10" transform="translate(-17.764)"/>
            <path id="prefix__Path_11" d="M6.841 6.908H3.432L0 0h3.432z" class="prefix__cls-2" data-name="Path 11"/>
        </g>
    </g>
</svg>
