<svg xmlns="http://www.w3.org/2000/svg" width="29.25" height="32.499" viewBox="0 0 29.25 32.499">
    <defs>
        <style>
            .cls-1{fill:#0070ff}
        </style>
    </defs>
    <g id="Group_3259" data-name="Group 3259" transform="translate(-306.232 -236.325)">
        <path id="Path_1602" d="M332.107 236.325h-14.375a.875.875 0 0 0 0 1.75h14.375a1.626 1.626 0 0 1 1.625 1.625v22.5a1.626 1.626 0 0 1-1.625 1.625h-7.459a.883.883 0 0 0-.619.257l-2.87 2.87a.439.439 0 0 1-.6 0l-2.871-2.87a.868.868 0 0 0-.619-.257h-7.46a1.626 1.626 0 0 1-1.625-1.625v-22.5a1.627 1.627 0 0 1 1.625-1.625h2.5a.875.875 0 1 0 0-1.75h-2.5a3.379 3.379 0 0 0-3.375 3.375v22.5a3.378 3.378 0 0 0 3.375 3.375h7.1l2.614 2.614a2.179 2.179 0 0 0 3.077 0l2.615-2.614h7.1a3.378 3.378 0 0 0 3.375-3.375v-22.5a3.378 3.378 0 0 0-3.383-3.375z" class="cls-1" data-name="Path 1602"/>
        <path id="Path_1604" d="M327.982 250.481v-2.5a.876.876 0 0 0-.875-.875h-2.625a2.249 2.249 0 0 0 .063-.531 3.946 3.946 0 0 0-7.375 0 2.248 2.248 0 0 0 .062.531h-2.625a.877.877 0 0 0-.875.875v2.5a.876.876 0 0 0 .625.838v5.412a.876.876 0 0 0 .875.874h11.25a.875.875 0 0 0 .875-.874v-5.412a.875.875 0 0 0 .625-.838zm-1.75-1.625v.75h-4.5v-.75zm-3.968-1.75h-.532v-.531a.532.532 0 1 1 .532.531zm3.343 4.25v4.5h-3.875v-4.5zm-5.625 0v4.5h-3.875v-4.5zm0-4.781v.531h-.531a.532.532 0 1 1 .531-.531zm0 2.281v.75h-4.5v-.75z" class="cls-1" data-name="Path 1604"/>
        <path id="Path_1605" d="M314.921 238.075a.875.875 0 1 0-.876-.875.877.877 0 0 0 .876.875z" class="cls-1" data-name="Path 1605"/>
    </g>
</svg>
