<svg xmlns="http://www.w3.org/2000/svg" width="126.3" height="31.6" viewBox="0 15 126.3 31.6">
    <defs>
        <style>
            .cls-paypal-logo-1{fill:#003087}.cls-paypal-logo-2{fill:#009cde}.cls-paypal-logo-3{fill:#012169}
        </style>
    </defs>
    <g transform="translate(-823.692 -4679)">
        <g transform="translate(810.537 4784.771)">
            <path d="M36.245-88.358c-1.482-1.689-4.16-2.413-7.587-2.413h-9.945a1.424 1.424 0 0 0-1.407 1.2l-4.139 26.265a.853.853 0 0 0 .194.687.853.853 0 0 0 .649.3h6.14l1.542-9.78-.048.306a1.42 1.42 0 0 1 1.4-1.2h2.917c5.731 0 10.219-2.328 11.53-9.062q.058-.3.1-.582c.389-2.489 0-4.183-1.349-5.717" class="cls-paypal-logo-1" transform="translate(-.001)"/>
            <path id="Path_1304" d="M228.345-64.445c-.375 2.464-2.257 2.464-4.077 2.464h-1.036l.727-4.6a.572.572 0 0 1 .565-.482H225c1.239 0 2.409 0 3.013.705a2.3 2.3 0 0 1 .333 1.914m-.792-6.43h-6.865a.956.956 0 0 0-.944.805l-2.774 17.6a.573.573 0 0 0 .13.46.573.573 0 0 0 .434.2h3.523a.668.668 0 0 0 .659-.563l.788-4.992a.954.954 0 0 1 .942-.805h2.172c4.523 0 7.133-2.187 7.814-6.525a5.287 5.287 0 0 0-.875-4.43c-.976-1.147-2.707-1.754-5-1.754" class="cls-paypal-logo-2" transform="translate(-116.941 -11.416)"/>
            <path d="M113.459-64.445c-.375 2.464-2.257 2.464-4.078 2.464h-1.036l.727-4.6a.572.572 0 0 1 .565-.482h.475c1.239 0 2.409 0 3.013.705a2.291 2.291 0 0 1 .334 1.914m-.792-6.43H105.8a.955.955 0 0 0-.943.805l-2.775 17.6a.572.572 0 0 0 .13.461.572.572 0 0 0 .435.2h3.279a.954.954 0 0 0 .942-.805l.75-4.749a.953.953 0 0 1 .942-.805h2.172c4.523 0 7.133-2.188 7.814-6.526a5.287 5.287 0 0 0-.875-4.43c-.976-1.147-2.707-1.754-5-1.754m15.938 12.751a3.666 3.666 0 0 1-3.711 3.14 2.775 2.775 0 0 1-2.208-.888 2.79 2.79 0 0 1-.515-2.308 3.678 3.678 0 0 1 3.684-3.164 2.771 2.771 0 0 1 2.192.9 2.83 2.83 0 0 1 .558 2.324m4.582-6.4H129.9a.573.573 0 0 0-.566.484l-.143.919-.23-.333c-.712-1.033-2.3-1.379-3.883-1.379a7.559 7.559 0 0 0-7.338 6.612 6.206 6.206 0 0 0 1.224 5.052A5.144 5.144 0 0 0 123.1-51.5a6.3 6.3 0 0 0 4.551-1.88l-.147.913a.572.572 0 0 0 .13.461.572.572 0 0 0 .435.2h2.96a.954.954 0 0 0 .943-.805l1.777-11.253a.573.573 0 0 0-.131-.461.573.573 0 0 0-.436-.2" class="cls-paypal-logo-1" transform="translate(-51.022 -11.416)"/>
            <path d="M264.443-49.991a3.666 3.666 0 0 1-3.711 3.14 2.775 2.775 0 0 1-2.208-.888 2.79 2.79 0 0 1-.515-2.308 3.678 3.678 0 0 1 3.684-3.164 2.771 2.771 0 0 1 2.192.9 2.83 2.83 0 0 1 .558 2.324m4.582-6.4h-3.287a.573.573 0 0 0-.566.484l-.143.919-.23-.333c-.712-1.033-2.3-1.379-3.883-1.379a7.561 7.561 0 0 0-7.338 6.612 6.207 6.207 0 0 0 1.225 5.052 5.144 5.144 0 0 0 4.14 1.671 6.3 6.3 0 0 0 4.552-1.88l-.147.913a.57.57 0 0 0 .129.461.57.57 0 0 0 .435.2h2.959a.956.956 0 0 0 .944-.805l1.777-11.253a.573.573 0 0 0-.131-.461.573.573 0 0 0-.436-.2" class="cls-paypal-logo-2" transform="translate(-137.893 -19.549)"/>
            <path d="M195.527-55.974h-3.305a.95.95 0 0 0-.788.419l-4.559 6.713-1.932-6.451a.956.956 0 0 0-.914-.682h-3.248a.573.573 0 0 0-.466.24.573.573 0 0 0-.076.518l3.638 10.68-3.422 4.828a.573.573 0 0 0-.041.593.573.573 0 0 0 .508.309h3.3a.956.956 0 0 0 .783-.41L196-55.075a.572.572 0 0 0 .038-.591.572.572 0 0 0-.507-.307" class="cls-paypal-logo-1" transform="translate(-95.852 -19.965)"/>
            <path d="M295.24-70.389l-2.818 17.925a.573.573 0 0 0 .131.461.573.573 0 0 0 .435.2h2.833a.955.955 0 0 0 .943-.805l2.779-17.6a.572.572 0 0 0-.13-.461.572.572 0 0 0-.435-.2h-3.171a.571.571 0 0 0-.566.483" class="cls-paypal-logo-2" transform="translate(-160.234 -11.417)"/>
            <path d="M36.245-88.358c-1.482-1.689-4.16-2.413-7.587-2.413h-9.945a1.424 1.424 0 0 0-1.407 1.2l-4.139 26.265a.853.853 0 0 0 .194.687.853.853 0 0 0 .649.3h6.14l1.542-9.78-.048.306a1.42 1.42 0 0 1 1.4-1.2h2.917c5.731 0 10.219-2.328 11.53-9.062q.058-.3.1-.582c.389-2.489 0-4.183-1.349-5.717" class="cls-paypal-logo-1" transform="translate(-.001)"/>
            <path d="M23.347-82.606a1.246 1.246 0 0 1 1.229-1.051h7.8a16.391 16.391 0 0 1 2.571.186 10.8 10.8 0 0 1 1.275.285 7.044 7.044 0 0 1 1.373.547c.391-2.49 0-4.183-1.348-5.718-1.483-1.688-4.16-2.412-7.587-2.412h-9.949a1.424 1.424 0 0 0-1.406 1.2l-4.14 26.262a.853.853 0 0 0 .194.688.853.853 0 0 0 .649.3h6.14L21.69-72.1z" class="cls-paypal-logo-1" transform="translate(0 -.001)"/>
            <path d="M46.423-71.7q-.046.292-.1.582c-1.311 6.733-5.8 9.062-11.53 9.062h-2.92a1.418 1.418 0 0 0-1.4 1.2l-1.494 9.473-.425 2.687a.747.747 0 0 0 .17.6.747.747 0 0 0 .568.262h5.175a1.246 1.246 0 0 0 1.233-1.042l.05-.264.975-6.182.062-.342a1.245 1.245 0 0 1 1.23-1.051h.775c5.014 0 8.939-2.036 10.086-7.927.478-2.461.23-4.517-1.036-5.961a4.943 4.943 0 0 0-1.419-1.097" class="cls-paypal-logo-2" transform="translate(-8.83 -10.945)"/>
            <path d="M47.646-73.612q-.3-.089-.619-.159a10.493 10.493 0 0 0-.657-.124 16.076 16.076 0 0 0-2.572-.189H36a1.243 1.243 0 0 0-1.229 1.052l-1.655 10.506-.048.305a1.418 1.418 0 0 1 1.4-1.2h2.918c5.731 0 10.219-2.328 11.53-9.062.039-.2.072-.392.1-.582a7.079 7.079 0 0 0-1.078-.455c-.1-.032-.195-.062-.295-.092" class="cls-paypal-logo-3" transform="translate(-11.426 -9.574)"/>
        </g>
    </g>
</svg>
